2-Datamangement
…
vecteur<- c("a","b","c")
vecteur2<- vecteur
vecteur3<- c(vecteur, vecteur2)

Variable d’une base de données

data1$`Pathologie lié au travail ? [AT non reconnu]`

 [1] "Non" "Non" "Non" "Non" NA    "Non" "Non" "Non" "Non" "Non" "Non" "Non"
[13] "Non" "Non" "Non" "Non" "Non" "Non" "Non" "Non" "Non" "Non" "Non" "Non"
[25] "Non" "Non" "Non" "Non" "Non" "Non" "Non" "Non" "Non" "Non" "Non" "Non"

data1[,1]

# A tibble: 36 x 1
   `ID de la réponse`
                <dbl>
 1                 45
 2                 46
 3                 47
 4                 48
 5                 49
 6                 50
 7                 51
 8                 52
 9                 53
10                 54
# ... with 26 more rows
…
